{
  "list": [
    {
      "id": "book-1",
      "title": "SSC CGL Complete Guide 2024",
      "author": "Dr. R.K. Sharma",
      "subject": "General Studies",
      "category": "SSC",
      "type": "Physical Book",
      "thumb": "/assets/ssc-cgl.jpg",
      "rating": 4.8,
      "pages": 850,
      "price": 599,
      "originalPrice": 799,
      "language": "English",
      "edition": "Latest Edition",
      "publication": "Genesis Publications",
      "href": "/books/ssc-cgl-complete-guide"
    },
    {
      "id": "book-2", 
      "title": "Banking Exam Master Guide",
      "author": "Prof. A.K. Singh",
      "subject": "Banking Awareness",
      "category": "Banking",
      "type": "E-Book",
      "thumb": "/assets/bank-po.jpg",
      "rating": 4.7,
      "pages": 650,
      "price": 399,
      "originalPrice": 499,
      "language": "English",
      "edition": "2024 Edition",
      "publication": "Genesis Publications",
      "href": "/books/banking-exam-master"
    },
    {
      "id": "book-3",
      "title": "Quantitative Aptitude for Competitive Exams",
      "author": "Dr. M.K. Pandey",
      "subject": "Mathematics",
      "category": "General",
      "type": "Physical Book",
      "thumb": "/assets/ssc-cgl.jpg",
      "rating": 4.9,
      "pages": 750,
      "price": 699,
      "originalPrice": 899,
      "language": "English",
      "edition": "Revised Edition",
      "publication": "Genesis Publications",
      "href": "/books/quantitative-aptitude"
    },
    {
      "id": "book-4",
      "title": "English Language & Comprehension",
      "author": "Dr. S.P. Bakshi",
      "subject": "English",
      "category": "General",
      "type": "Combo Pack",
      "thumb": "/assets/bank-po.jpg",
      "rating": 4.6,
      "pages": 500,
      "price": 799,
      "originalPrice": 999,
      "language": "English",
      "edition": "Latest Edition",
      "publication": "Genesis Publications",
      "href": "/books/english-comprehension"
    },
    {
      "id": "book-5",
      "title": "General Knowledge Encyclopedia",
      "author": "Team Genesis",
      "subject": "General Knowledge",
      "category": "General",
      "type": "E-Book",
      "thumb": "/assets/ssc-cgl.jpg",
      "rating": 4.5,
      "pages": 1200,
      "price": 299,
      "originalPrice": 399,
      "language": "Hindi",
      "edition": "2024 Edition",
      "publication": "Genesis Publications",
      "href": "/books/gk-encyclopedia"
    },
    {
      "id": "book-6",
      "title": "SSC CHSL Complete Package",
      "author": "Dr. R.S. Aggarwal",
      "subject": "All Subjects",
      "category": "SSC",
      "type": "Combo Pack",
      "thumb": "/assets/bank-po.jpg",
      "rating": 4.7,
      "pages": 950,
      "price": 1299,
      "originalPrice": 1599,
      "language": "English",
      "edition": "Latest Edition",
      "publication": "Genesis Publications",
      "href": "/books/ssc-chsl-package"
    }
  ],
  "pagination": {
    "total": 156,
    "perPage": 6,
    "currentPage": 1,
    "totalPages": 26
  }
}